[
    {
        "name": "Property 1",
        "price": "£123,000",
        "location": "Edinburgh",
        "image": "https://lid.zoocdn.com/354/255/28a6f709f92939e26c07c11551896c340c51d9be.jpg"
    },
    {
        "name": "Property 2",
        "price": "£200,000",
        "location": "Fife",
        "image": "https://img2.propertypal.com/01db01640005b530e3/p/569784/14778143.jpg"
    },
    {
        "name": "Property 3",
        "price": "£150,000",
        "location": "Glasgow",
        "image": "https://img2.propertypal.com/01db01640005b530e3/p/569784/14778143.jpg"
    },
    {
        "name": "Property 4",
        "price": "£200,000",
        "location": "Inverness",
        "image": "https://img2.propertypal.com/01db01640005b530e3/p/569784/14778143.jpg"
    },
    {
        "name": "Property 5",
        "price": "£175,000",
        "location": "Stirling",
        "image": "https://img2.propertypal.com/01db01640005b530e3/p/569784/14778143.jpg"
    },
    {
        "name": "Property 6",
        "price": "£800,000",
        "location": "Falkirk",
        "image": "https://img2.propertypal.com/01db01640005b530e3/p/569784/14778143.jpg"
    },
    {
        "name": "Property 7",
        "price": "£60,000",
        "location": "Edinburgh",
        "image": "https://page-assets.foxtons.co.uk/news-images/2017/10/period-property-collage/720.jpg"
    },
    {
        "name": "Property 8",
        "price": "£750,000",
        "location": "Fife",
        "image": "https://lid.zoocdn.com/354/255/dbd866a52f2f82ff3fd9671c8ac28005823be6b4.jpg"
    },
    {
        "name": "Property 9",
        "price": "£550,000",
        "location": "Fife",
        "image": "https://img2.propertypal.com/01db01640005b530e3/p/569784/14778143.jpg"
    },
    {
        "name": "Property 10",
        "price": "£850,000",
        "location": "Fife",
        "image": "https://img2.propertypal.com/01db01640005b530e3/p/569784/14778143.jpg"
    }
]